Introduction to Data Science
…
* It also possible to the unique values and removing duplicates with **`fct_unique()`**

---
#Inspect factors: fct_count()

Following our example:

```r
R> #Count the times the name of a country is repeated
R> 
R> fct_count(country_sample, head(14))
```

```
## # A tibble: 21 x 2
##    f            n
##    <fct>    <int>
##  1 Croatia      4
##  2 Poland       4
##  3 Finland      3
##  4 Malta        3
##  5 Bulgaria     2
##  6 Czechia      2
##  7 Estonia      2
##  8 France       2
##  9 Ireland      2
## 10 Italy        2
## # ... with 11 more rows
```
…
